{
    "page": 3,
    "items_per_page": 1,
    "total_items": 3,
    "items_this_page": 1,
    "sort_by": null,
    "sort_ascending": true,
    "items": [
      {
        "id": 3,
        "name": {
          "type": "S.B.",
          "number": "5352",
          "title": "Trade with China Strategic Assessment Act of 2022"
        },
        "description": null,
        "congress": 117,
        "chamber": "Senate",
        "actions": [
          {
            "sequence_number": 0,
            "date": "2022-12-21",
            "action": "Introduced in Senate"
          }
        ],
        "subject_area": "Foreign Trade and International Finance",
        "relations": {
          "total_committees": 1,
          "total_sponsors": 1,
          "total_votes_yea": 34,
          "total_votes_nay": 66,
          "committees": [
            {
              "name": "Ways and Means Committee",
              "id": 3
            }
          ],
          "sponsors": [
            {
              "name": "Sen. Portman, Rob [R-OH]",
              "id": 3
            }
          ],
          "voted_yea": [
            {
              "name": "Sen. Portman, Rob [R-OH]",
              "id": 3
            },
            {
              "name": "Rep. Maloney, Carolyn B. [D-NY]",
              "id": 1
            }
          ],
          "voted_nay": [
            {
              "name": "Rep. Cicilline, David N. [D-RI]",
              "id": 2
            }
          ]
        }
      }
    ]
  }