{
  "pagination": {
    "page": 0,
    "items_per_page": 10,
    "total_items": 3,
    "items_this_page": 3,
    "sort_by": null,
    "sort_ascending": true
  },
  "items": [
    {
      "id": 1,
      "name": {
        "last": "Maloney",
        "first": "Carolyn",
        "middle_initial": "B"
      },
      "party": "Democratic",
      "party_initial": "D",
      "image_url": "https://www.congress.gov/img/member/116_rp_ny_12_maloney_carolyn_200.jpg",
      "website_url": "https://www.congress.gov/member/carolyn-maloney/M000087",
      "chamber": "House",
      "district": 12,
      "state": "New York",
      "state_abbreviation": "NY",
      "relations": {
        "chairing": [],
        "sponsored_bills": [
          {
            "id": 1,
            "name": "H.R. 3076: Postal Service Reform Act of 2022"
          }
        ],
        "total_sponsored_bills": 1,
        "committees": [
          {
            "name": "Ways and Means Committee",
            "id": 3
          }
        ],
        "total_committees": 1,
        "bills_voted_yea": [
          {
            "id": 1,
            "name": "H.R. 3076: Postal Service Reform Act of 2022"
          },
          {
            "id": 2,
            "name": "H.R. 5: Equality Act"
          },
          {
            "id": 3,
            "name": "S.B. 5352: Trade with China Strategic Assessment Act of 2022"
          }
        ],
        "total_votes_yea": 3,
        "bills_voted_nay": [],
        "total_votes_nay": 0
      }
    },
    {
      "id": 2,
      "name": {
        "last": "Cicilline",
        "first": "David",
        "middle_initial": "N"
      },
      "party": "Democratic",
      "party_initial": "D",
      "image_url": "https://www.congress.gov/img/member/115_rp_ri_1_cicilline_david_200.jpg",
      "website_url": "https://www.congress.gov/member/david-cicilline/C001084",
      "chamber": "House",
      "district": 1,
      "state": "Rhode Island",
      "state_abbreviation": "RI",
      "relations": {
        "chairing": [
          {
            "id": 2,
            "name": "Education and Labor"
          }
        ],
        "sponsored_bills": [
          {
            "id": 2,
            "name": "H.R. 5: Equality Act"
          }
        ],
        "total_sponsored_bills": 1,
        "committees": [
          {
            "name": "House - Judiciary",
            "id": 1
          },
          {
            "name": "Education and Labor",
            "id": 2
          }
        ],
        "total_committees": 2,
        "bills_voted_yea": [
          {
            "id": 2,
            "name": "H.R. 5: Equality Act"
          }
        ],
        "total_votes_yea": 1,
        "bills_voted_nay": [
          {
            "id": 3,
            "name": "S.B. 5352: Trade with China Strategic Assessment Act of 2022"
          }
        ],
        "total_votes_nay": 1
      }
    },
    {
      "id": 3,
      "name": {
        "last": "Portman",
        "first": "Rob",
        "middle_initial": null
      },
      "party": "Republican",
      "party_initial": "R",
      "image_url": "https://www.congress.gov/img/member/p000449_200.jpg",
      "website_url": "https://www.congress.gov/member/rob-portman/P000449",
      "chamber": "Senate",
      "district": null,
      "state": "Ohio",
      "state_abbreviation": "OH",
      "relations": {
        "chairing": [],
        "sponsored_bills": [
          {
            "id": 3,
            "name": "S.B. 5352: Trade with China Strategic Assessment Act of 2022"
          }
        ],
        "total_sponsored_bills": 1,
        "committees": [
          {
            "name": "Education and Labor",
            "id": 2
          }
        ],
        "total_committees": 1,
        "bills_voted_yea": [
          {
            "id": 3,
            "name": "S.B. 5352: Trade with China Strategic Assessment Act of 2022"
          }
        ],
        "total_votes_yea": 1,
        "bills_voted_nay": [
          {
            "id": 1,
            "name": "H.R. 3076: Postal Service Reform Act of 2022"
          }
        ],
        "total_votes_nay": 1
      }
    }
  ]
}
