{
  "category": "procedural",
  "chamber": "h",
  "congress": 118,
  "date": "2023-01-06T15:35:00-05:00",
  "number": 17,
  "question": "On Motion to Adjourn",
  "requires": "1/2",
  "result": "Passed",
  "result_text": "Passed",
  "session": "2023",
  "source_url": "https://clerk.house.gov/evs/2023/roll017.xml",
  "type": "On the Motion to Adjourn",
  "updated_at": "2023-07-03T12:48:01-04:00",
  "vote_id": "h17-118.2023",
  "votes": {
    "Nay": [
      {
        "display_name": "Adams",
        "id": "A000370",
        "party": "D",
        "state": "NC"
      },
      {
        "display_name": "Aguilar",
        "id": "A000371",
        "party": "D",
        "state": "CA"
      },
      {
        "display_name": "Allred",
        "id": "A000376",
        "party": "D",
        "state": "TX"
      },
      {
        "display_name": "Auchincloss",
        "id": "A000148",
        "party": "D",
        "state": "MA"
      },
      {
        "display_name": "Balint",
        "id": "B001318",
        "party": "D",
        "state": "VT"
      },
      {
        "display_name": "Barrag\u00e1n",
        "id": "B001300",
        "party": "D",
        "state": "CA"
      },
      {
        "display_name": "Beatty",
        "id": "B001281",
        "party": "D",
        "state": "OH"
      },
      {
        "display_name": "Bera",
        "id": "B001287",
        "party": "D",
        "state": "CA"
      },
      {
        "display_name": "Beyer",
        "id": "B001292",
        "party": "D",
        "state": "VA"
      },
      {
        "display_name": "Bishop (GA)",
        "id": "B000490",
        "party": "D",
        "state": "GA"
      },
      {
        "display_name": "Blumenauer",
        "id": "B000574",
        "party": "D",
        "state": "OR"
      },
      {
        "display_name": "Blunt Rochester",
        "id": "B001303",
        "party": "D",
        "state": "DE"
      },
      {
        "display_name": "Bonamici",
        "id": "B001278",
        "party": "D",
        "state": "OR"
      },
      {
        "display_name": "Bowman",
        "id": "B001223",
        "party": "D",
        "state": "NY"
      },
      {
        "display_name": "Boyle (PA)",
        "id": "B001296",
        "party": "D",
        "state": "PA"
      },
      {
        "display_name": "Brown",
        "id": "B001313",
        "party": "D",
        "state": "OH"
      },
      {
        "display_name": "Brownley",
        "id": "B001285",
        "party": "D",
        "state": "CA"
      },
      {
        "display_name": "Budzinski",
        "id": "B001315",
        "party": "D",
        "state": "IL"
      },
      {
        "display_name": "Bush",
        "id": "B001224",
        "party": "D",
        "state": "MO"
      },
      {
        "display_name": "Caraveo",
        "id": "C001134",
        "party": "D",
        "state": "CO"
      },
      {
        "display_name": "Carbajal",
        "id": "C001112",
        "party": "D",
        "state": "CA"
      },
      {
        "display_name": "C\u00e1rdenas",
        "id": "C001097",
        "party": "D",
        "state": "CA"
      },
      {
        "display_name": "Carson",
        "id": "C001072",
        "party": "D",
        "state": "IN"
      },
      {
        "display_name": "Carter (LA)",
        "id": "C001125",
        "party": "D",
        "state": "LA"
      },
      {
        "display_name": "Cartwright",
        "id": "C001090",
        "party": "D",
        "state": "PA"
      },
      {
        "display_name": "Casar",
        "id": "C001131",
        "party": "D",
        "state": "TX"
      },
      {
        "display_name": "Case",
        "id": "C001055",
        "party": "D",
        "state": "HI"
      },
      {
        "display_name": "Casten",
        "id": "C001117",
        "party": "D",
        "state": "IL"
      },
      {
        "display_name": "Castor (FL)",
        "id": "C001066",
        "party": "D",
        "state": "FL"
      },
      {
        "display_name": "Castro (TX)",
        "id": "C001091",
        "party": "D",
        "state": "TX"
      },
      {
        "display_name": "Cherfilus-McCormick",
        "id": "C001127",
        "party": "D",
        "state": "FL"
      },
      {
        "display_name": "Chu",
        "id": "C001080",
        "party": "D",
        "state": "CA"
      },
      {
        "display_name": "Cicilline",
        "id": "C001084",
        "party": "D",
        "state": "RI"
      },
      {
        "display_name": "Clark (MA)",
        "id": "C001101",
        "party": "D",
        "state": "MA"
      },
      {
        "display_name": "Clarke (NY)",
        "id": "C001067",
        "party": "D",
        "state": "NY"
      },
      {
        "display_name": "Cleaver",
        "id": "C001061",
        "party": "D",
        "state": "MO"
      },
      {
        "display_name": "Clyburn",
        "id": "C000537",
        "party": "D",
        "state": "SC"
      },
      {
        "display_name": "Cohen",
        "id": "C001068",
        "party": "D",
        "state": "TN"
      },
      {
        "display_name": "Connolly",
        "id": "C001078",
        "party": "D",
        "state": "VA"
      },
      {
        "display_name": "Correa",
        "id": "C001110",
        "party": "D",
        "state": "CA"
      },
      {
        "display_name": "Costa",
        "id": "C001059",
        "party": "D",
        "state": "CA"
      },
      {
        "display_name": "Courtney",
        "id": "C001069",
        "party": "D",
        "state": "CT"
      },
      {
        "display_name": "Craig",
        "id": "C001119",
        "party": "D",
        "state": "MN"
      },
      {
        "display_name": "Crockett",
        "id": "C001130",
        "party": "D",
        "state": "TX"
      },
      {
        "display_name": "Crow",
        "id": "C001121",
        "party": "D",
        "state": "CO"
      },
      {
        "display_name": "Cuellar",
        "id": "C001063",
        "party": "D",
        "state": "TX"
      },
      {
        "display_name": "Davids (KS)",
        "id": "D000629",
        "party": "D",
        "state": "KS"
      },
      {
        "display_name": "Davis (IL)",
        "id": "D000096",
        "party": "D",
        "state": "IL"
      },
      {
        "display_name": "Davis (NC)",
        "id": "D000230",
        "party": "D",
        "state": "NC"
      },
      {
        "display_name": "Dean (PA)",
        "id": "D000631",
        "party": "D",
        "state": "PA"
      },
      {
        "display_name": "DeGette",
        "id": "D000197",
        "party": "D",
        "state": "CO"
      },
      {
        "display_name": "DeLauro",
        "id": "D000216",
        "party": "D",
        "state": "CT"
      },
      {
        "display_name": "DelBene",
        "id": "D000617",
        "party": "D",
        "state": "WA"
      },
      {
        "display_name": "Deluzio",
        "id": "D000530",
        "party": "D",
        "state": "PA"
      },
      {
        "display_name": "DeSaulnier",
        "id": "D000623",
        "party": "D",
        "state": "CA"
      },
      {
        "display_name": "Dingell",
        "id": "D000624",
        "party": "D",
        "state": "MI"
      },
      {
        "display_name": "Doggett",
        "id": "D000399",
        "party": "D",
        "state": "TX"
      },
      {
        "display_name": "Escobar",
        "id": "E000299",
        "party": "D",
        "state": "TX"
      },
      {
        "display_name": "Eshoo",
        "id": "E000215",
        "party": "D",
        "state": "CA"
      },
      {
        "display_name": "Espaillat",
        "id": "E000297",
        "party": "D",
        "state": "NY"
      },
      {
        "display_name": "Evans",
        "id": "E000296",
        "party": "D",
        "state": "PA"
      },
      {
        "display_name": "Fletcher",
        "id": "F000468",
        "party": "D",
        "state": "TX"
      },
      {
        "display_name": "Foster",
        "id": "F000454",
        "party": "D",
        "state": "IL"
      },
      {
        "display_name": "Foushee",
        "id": "F000477",
        "party": "D",
        "state": "NC"
      },
      {
        "display_name": "Frankel, Lois",
        "id": "F000462",
        "party": "D",
        "state": "FL"
      },
      {
        "display_name": "Frost",
        "id": "F000476",
        "party": "D",
        "state": "FL"
      },
      {
        "display_name": "Gallego",
        "id": "G000574",
        "party": "D",
        "state": "AZ"
      },
      {
        "display_name": "Garamendi",
        "id": "G000559",
        "party": "D",
        "state": "CA"
      },
      {
        "display_name": "Garc\u00eda (IL)",
        "id": "G000586",
        "party": "D",
        "state": "IL"
      },
      {
        "display_name": "Garcia (TX)",
        "id": "G000587",
        "party": "D",
        "state": "TX"
      },
      {
        "display_name": "Garcia, Robert",
        "id": "G000598",
        "party": "D",
        "state": "CA"
      },
      {
        "display_name": "Golden (ME)",
        "id": "G000592",
        "party": "D",
        "state": "ME"
      },
      {
        "display_name": "Goldman (NY)",
        "id": "G000599",
        "party": "D",
        "state": "NY"
      },
      {
        "display_name": "Gomez",
        "id": "G000585",
        "party": "D",
        "state": "CA"
      },
      {
        "display_name": "Gonzalez, Vicente",
        "id": "G000581",
        "party": "D",
        "state": "TX"
      },
      {
        "display_name": "Gottheimer",
        "id": "G000583",
        "party": "D",
        "state": "NJ"
      },
      {
        "display_name": "Green (TX)",
        "id": "G000553",
        "party": "D",
        "state": "TX"
      },
      {
        "display_name": "Grijalva",
        "id": "G000551",
        "party": "D",
        "state": "AZ"
      },
      {
        "display_name": "Harder (CA)",
        "id": "H001090",
        "party": "D",
        "state": "CA"
      },
      {
        "display_name": "Hayes",
        "id": "H001081",
        "party": "D",
        "state": "CT"
      },
      {
        "display_name": "Higgins (NY)",
        "id": "H001038",
        "party": "D",
        "state": "NY"
      },
      {
        "display_name": "Himes",
        "id": "H001047",
        "party": "D",
        "state": "CT"
      },
      {
        "display_name": "Horsford",
        "id": "H001066",
        "party": "D",
        "state": "NV"
      },
      {
        "display_name": "Houlahan",
        "id": "H001085",
        "party": "D",
        "state": "PA"
      },
      {
        "display_name": "Hoyer",
        "id": "H000874",
        "party": "D",
        "state": "MD"
      },
      {
        "display_name": "Hoyle (OR)",
        "id": "H001094",
        "party": "D",
        "state": "OR"
      },
      {
        "display_name": "Huffman",
        "id": "H001068",
        "party": "D",
        "state": "CA"
      },
      {
        "display_name": "Ivey",
        "id": "I000058",
        "party": "D",
        "state": "MD"
      },
      {
        "display_name": "Jackson (IL)",
        "id": "J000309",
        "party": "D",
        "state": "IL"
      },
      {
        "display_name": "Jackson (NC)",
        "id": "J000308",
        "party": "D",
        "state": "NC"
      },
      {
        "display_name": "Jackson Lee",
        "id": "J000032",
        "party": "D",
        "state": "TX"
      },
      {
        "display_name": "Jacobs",
        "id": "J000305",
        "party": "D",
        "state": "CA"
      },
      {
        "display_name": "Jayapal",
        "id": "J000298",
        "party": "D",
        "state": "WA"
      },
      {
        "display_name": "Jeffries",
        "id": "J000294",
        "party": "D",
        "state": "NY"
      },
      {
        "display_name": "Johnson (GA)",
        "id": "J000288",
        "party": "D",
        "state": "GA"
      },
      {
        "display_name": "Kamlager-Dove",
        "id": "K000400",
        "party": "D",
        "state": "CA"
      },
      {
        "display_name": "Kaptur",
        "id": "K000009",
        "party": "D",
        "state": "OH"
      },
      {
        "display_name": "Keating",
        "id": "K000375",
        "party": "D",
        "state": "MA"
      },
      {
        "display_name": "Kelly (IL)",
        "id": "K000385",
        "party": "D",
        "state": "IL"
      },
      {
        "display_name": "Khanna",
        "id": "K000389",
        "party": "D",
        "state": "CA"
      },
      {
        "display_name": "Kildee",
        "id": "K000380",
        "party": "D",
        "state": "MI"
      },
      {
        "display_name": "Kilmer",
        "id": "K000381",
        "party": "D",
        "state": "WA"
      },
      {
        "display_name": "Kim (NJ)",
        "id": "K000394",
        "party": "D",
        "state": "NJ"
      },
      {
        "display_name": "Krishnamoorthi",
        "id": "K000391",
        "party": "D",
        "state": "IL"
      },
      {
        "display_name": "Kuster",
        "id": "K000382",
        "party": "D",
        "state": "NH"
      },
      {
        "display_name": "Landsman",
        "id": "L000601",
        "party": "D",
        "state": "OH"
      },
      {
        "display_name": "Larsen (WA)",
        "id": "L000560",
        "party": "D",
        "state": "WA"
      },
      {
        "display_name": "Larson (CT)",
        "id": "L000557",
        "party": "D",
        "state": "CT"
      },
      {
        "display_name": "Lee (CA)",
        "id": "L000551",
        "party": "D",
        "state": "CA"
      },
      {
        "display_name": "Lee (NV)",
        "id": "L000590",
        "party": "D",
        "state": "NV"
      },
      {
        "display_name": "Lee (PA)",
        "id": "L000602",
        "party": "D",
        "state": "PA"
      },
      {
        "display_name": "Leger Fernandez",
        "id": "L000273",
        "party": "D",
        "state": "NM"
      },
      {
        "display_name": "Levin",
        "id": "L000593",
        "party": "D",
        "state": "CA"
      },
      {
        "display_name": "Lieu",
        "id": "L000582",
        "party": "D",
        "state": "CA"
      },
      {
        "display_name": "Lofgren",
        "id": "L000397",
        "party": "D",
        "state": "CA"
      },
      {
        "display_name": "Lynch",
        "id": "L000562",
        "party": "D",
        "state": "MA"
      },
      {
        "display_name": "Magaziner",
        "id": "M001223",
        "party": "D",
        "state": "RI"
      },
      {
        "display_name": "Manning",
        "id": "M001135",
        "party": "D",
        "state": "NC"
      },
      {
        "display_name": "Matsui",
        "id": "M001163",
        "party": "D",
        "state": "CA"
      },
      {
        "display_name": "McBath",
        "id": "M001208",
        "party": "D",
        "state": "GA"
      },
      {
        "display_name": "McCollum",
        "id": "M001143",
        "party": "D",
        "state": "MN"
      },
      {
        "display_name": "McGarvey",
        "id": "M001220",
        "party": "D",
        "state": "KY"
      },
      {
        "display_name": "McGovern",
        "id": "M000312",
        "party": "D",
        "state": "MA"
      },
      {
        "display_name": "Meeks",
        "id": "M001137",
        "party": "D",
        "state": "NY"
      },
      {
        "display_name": "Menendez",
        "id": "M001226",
        "party": "D",
        "state": "NJ"
      },
      {
        "display_name": "Meng",
        "id": "M001188",
        "party": "D",
        "state": "NY"
      },
      {
        "display_name": "Mfume",
        "id": "M000687",
        "party": "D",
        "state": "MD"
      },
      {
        "display_name": "Moore (WI)",
        "id": "M001160",
        "party": "D",
        "state": "WI"
      },
      {
        "display_name": "Morelle",
        "id": "M001206",
        "party": "D",
        "state": "NY"
      },
      {
        "display_name": "Moskowitz",
        "id": "M001217",
        "party": "D",
        "state": "FL"
      },
      {
        "display_name": "Moulton",
        "id": "M001196",
        "party": "D",
        "state": "MA"
      },
      {
        "display_name": "Mrvan",
        "id": "M001214",
        "party": "D",
        "state": "IN"
      },
      {
        "display_name": "Mullin",
        "id": "M001225",
        "party": "D",
        "state": "CA"
      },
      {
        "display_name": "Nadler",
        "id": "N000002",
        "party": "D",
        "state": "NY"
      },
      {
        "display_name": "Napolitano",
        "id": "N000179",
        "party": "D",
        "state": "CA"
      },
      {
        "display_name": "Neal",
        "id": "N000015",
        "party": "D",
        "state": "MA"
      },
      {
        "display_name": "Neguse",
        "id": "N000191",
        "party": "D",
        "state": "CO"
      },
      {
        "display_name": "Nickel",
        "id": "N000194",
        "party": "D",
        "state": "NC"
      },
      {
        "display_name": "Norcross",
        "id": "N000188",
        "party": "D",
        "state": "NJ"
      },
      {
        "display_name": "Ocasio-Cortez",
        "id": "O000172",
        "party": "D",
        "state": "NY"
      },
      {
        "display_name": "Omar",
        "id": "O000173",
        "party": "D",
        "state": "MN"
      },
      {
        "display_name": "Pallone",
        "id": "P000034",
        "party": "D",
        "state": "NJ"
      },
      {
        "display_name": "Panetta",
        "id": "P000613",
        "party": "D",
        "state": "CA"
      },
      {
        "display_name": "Pappas",
        "id": "P000614",
        "party": "D",
        "state": "NH"
      },
      {
        "display_name": "Pascrell",
        "id": "P000096",
        "party": "D",
        "state": "NJ"
      },
      {
        "display_name": "Payne",
        "id": "P000604",
        "party": "D",
        "state": "NJ"
      },
      {
        "display_name": "Pelosi",
        "id": "P000197",
        "party": "D",
        "state": "CA"
      },
      {
        "display_name": "Peltola",
        "id": "P000619",
        "party": "D",
        "state": "AK"
      },
      {
        "display_name": "Perez",
        "id": "G000600",
        "party": "D",
        "state": "WA"
      },
      {
        "display_name": "Peters",
        "id": "P000608",
        "party": "D",
        "state": "CA"
      },
      {
        "display_name": "Pettersen",
        "id": "P000620",
        "party": "D",
        "state": "CO"
      },
      {
        "display_name": "Phillips",
        "id": "P000616",
        "party": "D",
        "state": "MN"
      },
      {
        "display_name": "Pingree",
        "id": "P000597",
        "party": "D",
        "state": "ME"
      },
      {
        "display_name": "Pocan",
        "id": "P000607",
        "party": "D",
        "state": "WI"
      },
      {
        "display_name": "Porter",
        "id": "P000618",
        "party": "D",
        "state": "CA"
      },
      {
        "display_name": "Pressley",
        "id": "P000617",
        "party": "D",
        "state": "MA"
      },
      {
        "display_name": "Quigley",
        "id": "Q000023",
        "party": "D",
        "state": "IL"
      },
      {
        "display_name": "Ramirez",
        "id": "R000617",
        "party": "D",
        "state": "IL"
      },
      {
        "display_name": "Raskin",
        "id": "R000606",
        "party": "D",
        "state": "MD"
      },
      {
        "display_name": "Ross",
        "id": "R000305",
        "party": "D",
        "state": "NC"
      },
      {
        "display_name": "Ruiz",
        "id": "R000599",
        "party": "D",
        "state": "CA"
      },
      {
        "display_name": "Ruppersberger",
        "id": "R000576",
        "party": "D",
        "state": "MD"
      },
      {
        "display_name": "Ryan",
        "id": "R000579",
        "party": "D",
        "state": "NY"
      },
      {
        "display_name": "Salinas",
        "id": "S001226",
        "party": "D",
        "state": "OR"
      },
      {
        "display_name": "S\u00e1nchez",
        "id": "S001156",
        "party": "D",
        "state": "CA"
      },
      {
        "display_name": "Sarbanes",
        "id": "S001168",
        "party": "D",
        "state": "MD"
      },
      {
        "display_name": "Scanlon",
        "id": "S001205",
        "party": "D",
        "state": "PA"
      },
      {
        "display_name": "Schakowsky",
        "id": "S001145",
        "party": "D",
        "state": "IL"
      },
      {
        "display_name": "Schiff",
        "id": "S001150",
        "party": "D",
        "state": "CA"
      },
      {
        "display_name": "Schneider",
        "id": "S001190",
        "party": "D",
        "state": "IL"
      },
      {
        "display_name": "Scholten",
        "id": "S001221",
        "party": "D",
        "state": "MI"
      },
      {
        "display_name": "Schrier",
        "id": "S001216",
        "party": "D",
        "state": "WA"
      },
      {
        "display_name": "Scott (VA)",
        "id": "S000185",
        "party": "D",
        "state": "VA"
      },
      {
        "display_name": "Scott, David",
        "id": "S001157",
        "party": "D",
        "state": "GA"
      },
      {
        "display_name": "Sewell",
        "id": "S001185",
        "party": "D",
        "state": "AL"
      },
      {
        "display_name": "Sherman",
        "id": "S000344",
        "party": "D",
        "state": "CA"
      },
      {
        "display_name": "Sherrill",
        "id": "S001207",
        "party": "D",
        "state": "NJ"
      },
      {
        "display_name": "Slotkin",
        "id": "S001208",
        "party": "D",
        "state": "MI"
      },
      {
        "display_name": "Smith (WA)",
        "id": "S000510",
        "party": "D",
        "state": "WA"
      },
      {
        "display_name": "Sorensen",
        "id": "S001225",
        "party": "D",
        "state": "IL"
      },
      {
        "display_name": "Soto",
        "id": "S001200",
        "party": "D",
        "state": "FL"
      },
      {
        "display_name": "Spanberger",
        "id": "S001209",
        "party": "D",
        "state": "VA"
      },
      {
        "display_name": "Stansbury",
        "id": "S001218",
        "party": "D",
        "state": "NM"
      },
      {
        "display_name": "Stanton",
        "id": "S001211",
        "party": "D",
        "state": "AZ"
      },
      {
        "display_name": "Stevens",
        "id": "S001215",
        "party": "D",
        "state": "MI"
      },
      {
        "display_name": "Strickland",
        "id": "S001159",
        "party": "D",
        "state": "WA"
      },
      {
        "display_name": "Swalwell",
        "id": "S001193",
        "party": "D",
        "state": "CA"
      },
      {
        "display_name": "Sykes",
        "id": "S001223",
        "party": "D",
        "state": "OH"
      },
      {
        "display_name": "Takano",
        "id": "T000472",
        "party": "D",
        "state": "CA"
      },
      {
        "display_name": "Thanedar",
        "id": "T000488",
        "party": "D",
        "state": "MI"
      },
      {
        "display_name": "Thompson (CA)",
        "id": "T000460",
        "party": "D",
        "state": "CA"
      },
      {
        "display_name": "Thompson (MS)",
        "id": "T000193",
        "party": "D",
        "state": "MS"
      },
      {
        "display_name": "Titus",
        "id": "T000468",
        "party": "D",
        "state": "NV"
      },
      {
        "display_name": "Tlaib",
        "id": "T000481",
        "party": "D",
        "state": "MI"
      },
      {
        "display_name": "Tokuda",
        "id": "T000487",
        "party": "D",
        "state": "HI"
      },
      {
        "display_name": "Tonko",
        "id": "T000469",
        "party": "D",
        "state": "NY"
      },
      {
        "display_name": "Torres (CA)",
        "id": "T000474",
        "party": "D",
        "state": "CA"
      },
      {
        "display_name": "Torres (NY)",
        "id": "T000486",
        "party": "D",
        "state": "NY"
      },
      {
        "display_name": "Trahan",
        "id": "T000482",
        "party": "D",
        "state": "MA"
      },
      {
        "display_name": "Trone",
        "id": "T000483",
        "party": "D",
        "state": "MD"
      },
      {
        "display_name": "Underwood",
        "id": "U000040",
        "party": "D",
        "state": "IL"
      },
      {
        "display_name": "Vargas",
        "id": "V000130",
        "party": "D",
        "state": "CA"
      },
      {
        "display_name": "Vasquez",
        "id": "V000136",
        "party": "D",
        "state": "NM"
      },
      {
        "display_name": "Veasey",
        "id": "V000131",
        "party": "D",
        "state": "TX"
      },
      {
        "display_name": "Vel\u00e1zquez",
        "id": "V000081",
        "party": "D",
        "state": "NY"
      },
      {
        "display_name": "Wasserman Schultz",
        "id": "W000797",
        "party": "D",
        "state": "FL"
      },
      {
        "display_name": "Waters",
        "id": "W000187",
        "party": "D",
        "state": "CA"
      },
      {
        "display_name": "Watson Coleman",
        "id": "W000822",
        "party": "D",
        "state": "NJ"
      },
      {
        "display_name": "Wexton",
        "id": "W000825",
        "party": "D",
        "state": "VA"
      },
      {
        "display_name": "Wild",
        "id": "W000826",
        "party": "D",
        "state": "PA"
      },
      {
        "display_name": "Williams (GA)",
        "id": "W000788",
        "party": "D",
        "state": "GA"
      },
      {
        "display_name": "Wilson (FL)",
        "id": "W000808",
        "party": "D",
        "state": "FL"
      }
    ],
    "Not Voting": [
      {
        "display_name": "Buck",
        "id": "B001297",
        "party": "R",
        "state": "CO"
      },
      {
        "display_name": "Hunt",
        "id": "H001095",
        "party": "R",
        "state": "TX"
      }
    ],
    "Present": [],
    "Yea": [
      {
        "display_name": "Aderholt",
        "id": "A000055",
        "party": "R",
        "state": "AL"
      },
      {
        "display_name": "Alford",
        "id": "A000379",
        "party": "R",
        "state": "MO"
      },
      {
        "display_name": "Allen",
        "id": "A000372",
        "party": "R",
        "state": "GA"
      },
      {
        "display_name": "Amodei",
        "id": "A000369",
        "party": "R",
        "state": "NV"
      },
      {
        "display_name": "Armstrong",
        "id": "A000377",
        "party": "R",
        "state": "ND"
      },
      {
        "display_name": "Arrington",
        "id": "A000375",
        "party": "R",
        "state": "TX"
      },
      {
        "display_name": "Babin",
        "id": "B001291",
        "party": "R",
        "state": "TX"
      },
      {
        "display_name": "Bacon",
        "id": "B001298",
        "party": "R",
        "state": "NE"
      },
      {
        "display_name": "Baird",
        "id": "B001307",
        "party": "R",
        "state": "IN"
      },
      {
        "display_name": "Balderson",
        "id": "B001306",
        "party": "R",
        "state": "OH"
      },
      {
        "display_name": "Banks",
        "id": "B001299",
        "party": "R",
        "state": "IN"
      },
      {
        "display_name": "Barr",
        "id": "B001282",
        "party": "R",
        "state": "KY"
      },
      {
        "display_name": "Bean (FL)",
        "id": "B001314",
        "party": "R",
        "state": "FL"
      },
      {
        "display_name": "Bentz",
        "id": "B000668",
        "party": "R",
        "state": "OR"
      },
      {
        "display_name": "Bergman",
        "id": "B001301",
        "party": "R",
        "state": "MI"
      },
      {
        "display_name": "Bice",
        "id": "B000740",
        "party": "R",
        "state": "OK"
      },
      {
        "display_name": "Biggs",
        "id": "B001302",
        "party": "R",
        "state": "AZ"
      },
      {
        "display_name": "Bilirakis",
        "id": "B001257",
        "party": "R",
        "state": "FL"
      },
      {
        "display_name": "Bishop (NC)",
        "id": "B001311",
        "party": "R",
        "state": "NC"
      },
      {
        "display_name": "Boebert",
        "id": "B000825",
        "party": "R",
        "state": "CO"
      },
      {
        "display_name": "Bost",
        "id": "B001295",
        "party": "R",
        "state": "IL"
      },
      {
        "display_name": "Brecheen",
        "id": "B001317",
        "party": "R",
        "state": "OK"
      },
      {
        "display_name": "Buchanan",
        "id": "B001260",
        "party": "R",
        "state": "FL"
      },
      {
        "display_name": "Bucshon",
        "id": "B001275",
        "party": "R",
        "state": "IN"
      },
      {
        "display_name": "Burchett",
        "id": "B001309",
        "party": "R",
        "state": "TN"
      },
      {
        "display_name": "Burgess",
        "id": "B001248",
        "party": "R",
        "state": "TX"
      },
      {
        "display_name": "Burlison",
        "id": "B001316",
        "party": "R",
        "state": "MO"
      },
      {
        "display_name": "Calvert",
        "id": "C000059",
        "party": "R",
        "state": "CA"
      },
      {
        "display_name": "Cammack",
        "id": "C001039",
        "party": "R",
        "state": "FL"
      },
      {
        "display_name": "Carey",
        "id": "C001126",
        "party": "R",
        "state": "OH"
      },
      {
        "display_name": "Carl",
        "id": "C001054",
        "party": "R",
        "state": "AL"
      },
      {
        "display_name": "Carter (GA)",
        "id": "C001103",
        "party": "R",
        "state": "GA"
      },
      {
        "display_name": "Carter (TX)",
        "id": "C001051",
        "party": "R",
        "state": "TX"
      },
      {
        "display_name": "Chavez-DeRemer",
        "id": "C001135",
        "party": "R",
        "state": "OR"
      },
      {
        "display_name": "Ciscomani",
        "id": "C001133",
        "party": "R",
        "state": "AZ"
      },
      {
        "display_name": "Cline",
        "id": "C001118",
        "party": "R",
        "state": "VA"
      },
      {
        "display_name": "Cloud",
        "id": "C001115",
        "party": "R",
        "state": "TX"
      },
      {
        "display_name": "Clyde",
        "id": "C001116",
        "party": "R",
        "state": "GA"
      },
      {
        "display_name": "Cole",
        "id": "C001053",
        "party": "R",
        "state": "OK"
      },
      {
        "display_name": "Collins",
        "id": "C001129",
        "party": "R",
        "state": "GA"
      },
      {
        "display_name": "Comer",
        "id": "C001108",
        "party": "R",
        "state": "KY"
      },
      {
        "display_name": "Crane",
        "id": "C001132",
        "party": "R",
        "state": "AZ"
      },
      {
        "display_name": "Crawford",
        "id": "C001087",
        "party": "R",
        "state": "AR"
      },
      {
        "display_name": "Crenshaw",
        "id": "C001120",
        "party": "R",
        "state": "TX"
      },
      {
        "display_name": "Curtis",
        "id": "C001114",
        "party": "R",
        "state": "UT"
      },
      {
        "display_name": "D'Esposito",
        "id": "D000632",
        "party": "R",
        "state": "NY"
      },
      {
        "display_name": "Davidson",
        "id": "D000626",
        "party": "R",
        "state": "OH"
      },
      {
        "display_name": "De La Cruz",
        "id": "D000594",
        "party": "R",
        "state": "TX"
      },
      {
        "display_name": "DesJarlais",
        "id": "D000616",
        "party": "R",
        "state": "TN"
      },
      {
        "display_name": "Diaz-Balart",
        "id": "D000600",
        "party": "R",
        "state": "FL"
      },
      {
        "display_name": "Donalds",
        "id": "D000032",
        "party": "R",
        "state": "FL"
      },
      {
        "display_name": "Duarte",
        "id": "D000633",
        "party": "R",
        "state": "CA"
      },
      {
        "display_name": "Duncan",
        "id": "D000615",
        "party": "R",
        "state": "SC"
      },
      {
        "display_name": "Dunn (FL)",
        "id": "D000628",
        "party": "R",
        "state": "FL"
      },
      {
        "display_name": "Edwards",
        "id": "E000246",
        "party": "R",
        "state": "NC"
      },
      {
        "display_name": "Ellzey",
        "id": "E000071",
        "party": "R",
        "state": "TX"
      },
      {
        "display_name": "Emmer",
        "id": "E000294",
        "party": "R",
        "state": "MN"
      },
      {
        "display_name": "Estes",
        "id": "E000298",
        "party": "R",
        "state": "KS"
      },
      {
        "display_name": "Ezell",
        "id": "E000235",
        "party": "R",
        "state": "MS"
      },
      {
        "display_name": "Fallon",
        "id": "F000246",
        "party": "R",
        "state": "TX"
      },
      {
        "display_name": "Feenstra",
        "id": "F000446",
        "party": "R",
        "state": "IA"
      },
      {
        "display_name": "Ferguson",
        "id": "F000465",
        "party": "R",
        "state": "GA"
      },
      {
        "display_name": "Finstad",
        "id": "F000475",
        "party": "R",
        "state": "MN"
      },
      {
        "display_name": "Fischbach",
        "id": "F000470",
        "party": "R",
        "state": "MN"
      },
      {
        "display_name": "Fitzgerald",
        "id": "F000471",
        "party": "R",
        "state": "WI"
      },
      {
        "display_name": "Fitzpatrick",
        "id": "F000466",
        "party": "R",
        "state": "PA"
      },
      {
        "display_name": "Fleischmann",
        "id": "F000459",
        "party": "R",
        "state": "TN"
      },
      {
        "display_name": "Flood",
        "id": "F000474",
        "party": "R",
        "state": "NE"
      },
      {
        "display_name": "Foxx",
        "id": "F000450",
        "party": "R",
        "state": "NC"
      },
      {
        "display_name": "Franklin, C. Scott",
        "id": "F000472",
        "party": "R",
        "state": "FL"
      },
      {
        "display_name": "Fry",
        "id": "F000478",
        "party": "R",
        "state": "SC"
      },
      {
        "display_name": "Fulcher",
        "id": "F000469",
        "party": "R",
        "state": "ID"
      },
      {
        "display_name": "Gaetz",
        "id": "G000578",
        "party": "R",
        "state": "FL"
      },
      {
        "display_name": "Gallagher",
        "id": "G000579",
        "party": "R",
        "state": "WI"
      },
      {
        "display_name": "Garbarino",
        "id": "G000597",
        "party": "R",
        "state": "NY"
      },
      {
        "display_name": "Garcia, Mike",
        "id": "G000061",
        "party": "R",
        "state": "CA"
      },
      {
        "display_name": "Gimenez",
        "id": "G000593",
        "party": "R",
        "state": "FL"
      },
      {
        "display_name": "Gonzales, Tony",
        "id": "G000594",
        "party": "R",
        "state": "TX"
      },
      {
        "display_name": "Good (VA)",
        "id": "G000595",
        "party": "R",
        "state": "VA"
      },
      {
        "display_name": "Gooden (TX)",
        "id": "G000589",
        "party": "R",
        "state": "TX"
      },
      {
        "display_name": "Gosar",
        "id": "G000565",
        "party": "R",
        "state": "AZ"
      },
      {
        "display_name": "Granger",
        "id": "G000377",
        "party": "R",
        "state": "TX"
      },
      {
        "display_name": "Graves (LA)",
        "id": "G000577",
        "party": "R",
        "state": "LA"
      },
      {
        "display_name": "Graves (MO)",
        "id": "G000546",
        "party": "R",
        "state": "MO"
      },
      {
        "display_name": "Green (TN)",
        "id": "G000590",
        "party": "R",
        "state": "TN"
      },
      {
        "display_name": "Greene (GA)",
        "id": "G000596",
        "party": "R",
        "state": "GA"
      },
      {
        "display_name": "Griffith",
        "id": "G000568",
        "party": "R",
        "state": "VA"
      },
      {
        "display_name": "Grothman",
        "id": "G000576",
        "party": "R",
        "state": "WI"
      },
      {
        "display_name": "Guest",
        "id": "G000591",
        "party": "R",
        "state": "MS"
      },
      {
        "display_name": "Guthrie",
        "id": "G000558",
        "party": "R",
        "state": "KY"
      },
      {
        "display_name": "Hageman",
        "id": "H001096",
        "party": "R",
        "state": "WY"
      },
      {
        "display_name": "Harris",
        "id": "H001052",
        "party": "R",
        "state": "MD"
      },
      {
        "display_name": "Harshbarger",
        "id": "H001086",
        "party": "R",
        "state": "TN"
      },
      {
        "display_name": "Hern",
        "id": "H001082",
        "party": "R",
        "state": "OK"
      },
      {
        "display_name": "Higgins (LA)",
        "id": "H001077",
        "party": "R",
        "state": "LA"
      },
      {
        "display_name": "Hill",
        "id": "H001072",
        "party": "R",
        "state": "AR"
      },
      {
        "display_name": "Hinson",
        "id": "H001091",
        "party": "R",
        "state": "IA"
      },
      {
        "display_name": "Houchin",
        "id": "H001093",
        "party": "R",
        "state": "IN"
      },
      {
        "display_name": "Hudson",
        "id": "H001067",
        "party": "R",
        "state": "NC"
      },
      {
        "display_name": "Huizenga",
        "id": "H001058",
        "party": "R",
        "state": "MI"
      },
      {
        "display_name": "Issa",
        "id": "I000056",
        "party": "R",
        "state": "CA"
      },
      {
        "display_name": "Jackson (TX)",
        "id": "J000304",
        "party": "R",
        "state": "TX"
      },
      {
        "display_name": "James",
        "id": "J000307",
        "party": "R",
        "state": "MI"
      },
      {
        "display_name": "Johnson (LA)",
        "id": "J000299",
        "party": "R",
        "state": "LA"
      },
      {
        "display_name": "Johnson (OH)",
        "id": "J000292",
        "party": "R",
        "state": "OH"
      },
      {
        "display_name": "Johnson (SD)",
        "id": "J000301",
        "party": "R",
        "state": "SD"
      },
      {
        "display_name": "Jordan",
        "id": "J000289",
        "party": "R",
        "state": "OH"
      },
      {
        "display_name": "Joyce (OH)",
        "id": "J000295",
        "party": "R",
        "state": "OH"
      },
      {
        "display_name": "Joyce (PA)",
        "id": "J000302",
        "party": "R",
        "state": "PA"
      },
      {
        "display_name": "Kean (NJ)",
        "id": "K000398",
        "party": "R",
        "state": "NJ"
      },
      {
        "display_name": "Kelly (MS)",
        "id": "K000388",
        "party": "R",
        "state": "MS"
      },
      {
        "display_name": "Kelly (PA)",
        "id": "K000376",
        "party": "R",
        "state": "PA"
      },
      {
        "display_name": "Kiggans (VA)",
        "id": "K000399",
        "party": "R",
        "state": "VA"
      },
      {
        "display_name": "Kiley",
        "id": "K000401",
        "party": "R",
        "state": "CA"
      },
      {
        "display_name": "Kim (CA)",
        "id": "K000397",
        "party": "R",
        "state": "CA"
      },
      {
        "display_name": "Kustoff",
        "id": "K000392",
        "party": "R",
        "state": "TN"
      },
      {
        "display_name": "LaHood",
        "id": "L000585",
        "party": "R",
        "state": "IL"
      },
      {
        "display_name": "LaLota",
        "id": "L000598",
        "party": "R",
        "state": "NY"
      },
      {
        "display_name": "LaMalfa",
        "id": "L000578",
        "party": "R",
        "state": "CA"
      },
      {
        "display_name": "Lamborn",
        "id": "L000564",
        "party": "R",
        "state": "CO"
      },
      {
        "display_name": "Langworthy",
        "id": "L000600",
        "party": "R",
        "state": "NY"
      },
      {
        "display_name": "Latta",
        "id": "L000566",
        "party": "R",
        "state": "OH"
      },
      {
        "display_name": "LaTurner",
        "id": "L000266",
        "party": "R",
        "state": "KS"
      },
      {
        "display_name": "Lawler",
        "id": "L000599",
        "party": "R",
        "state": "NY"
      },
      {
        "display_name": "Lee (FL)",
        "id": "L000597",
        "party": "R",
        "state": "FL"
      },
      {
        "display_name": "Lesko",
        "id": "L000589",
        "party": "R",
        "state": "AZ"
      },
      {
        "display_name": "Letlow",
        "id": "L000595",
        "party": "R",
        "state": "LA"
      },
      {
        "display_name": "Loudermilk",
        "id": "L000583",
        "party": "R",
        "state": "GA"
      },
      {
        "display_name": "Lucas",
        "id": "L000491",
        "party": "R",
        "state": "OK"
      },
      {
        "display_name": "Luetkemeyer",
        "id": "L000569",
        "party": "R",
        "state": "MO"
      },
      {
        "display_name": "Luna",
        "id": "L000596",
        "party": "R",
        "state": "FL"
      },
      {
        "display_name": "Luttrell",
        "id": "L000603",
        "party": "R",
        "state": "TX"
      },
      {
        "display_name": "Mace",
        "id": "M000194",
        "party": "R",
        "state": "SC"
      },
      {
        "display_name": "Malliotakis",
        "id": "M000317",
        "party": "R",
        "state": "NY"
      },
      {
        "display_name": "Mann",
        "id": "M000871",
        "party": "R",
        "state": "KS"
      },
      {
        "display_name": "Massie",
        "id": "M001184",
        "party": "R",
        "state": "KY"
      },
      {
        "display_name": "Mast",
        "id": "M001199",
        "party": "R",
        "state": "FL"
      },
      {
        "display_name": "McCarthy",
        "id": "M001165",
        "party": "R",
        "state": "CA"
      },
      {
        "display_name": "McCaul",
        "id": "M001157",
        "party": "R",
        "state": "TX"
      },
      {
        "display_name": "McClain",
        "id": "M001136",
        "party": "R",
        "state": "MI"
      },
      {
        "display_name": "McClintock",
        "id": "M001177",
        "party": "R",
        "state": "CA"
      },
      {
        "display_name": "McCormick",
        "id": "M001218",
        "party": "R",
        "state": "GA"
      },
      {
        "display_name": "McHenry",
        "id": "M001156",
        "party": "R",
        "state": "NC"
      },
      {
        "display_name": "Meuser",
        "id": "M001204",
        "party": "R",
        "state": "PA"
      },
      {
        "display_name": "Miller (IL)",
        "id": "M001211",
        "party": "R",
        "state": "IL"
      },
      {
        "display_name": "Miller (OH)",
        "id": "M001222",
        "party": "R",
        "state": "OH"
      },
      {
        "display_name": "Miller (WV)",
        "id": "M001205",
        "party": "R",
        "state": "WV"
      },
      {
        "display_name": "Miller-Meeks",
        "id": "M001215",
        "party": "R",
        "state": "IA"
      },
      {
        "display_name": "Mills",
        "id": "M001216",
        "party": "R",
        "state": "FL"
      },
      {
        "display_name": "Molinaro",
        "id": "M001221",
        "party": "R",
        "state": "NY"
      },
      {
        "display_name": "Moolenaar",
        "id": "M001194",
        "party": "R",
        "state": "MI"
      },
      {
        "display_name": "Mooney",
        "id": "M001195",
        "party": "R",
        "state": "WV"
      },
      {
        "display_name": "Moore (AL)",
        "id": "M001212",
        "party": "R",
        "state": "AL"
      },
      {
        "display_name": "Moore (UT)",
        "id": "M001213",
        "party": "R",
        "state": "UT"
      },
      {
        "display_name": "Moran",
        "id": "M001224",
        "party": "R",
        "state": "TX"
      },
      {
        "display_name": "Murphy",
        "id": "M001210",
        "party": "R",
        "state": "NC"
      },
      {
        "display_name": "Nehls",
        "id": "N000026",
        "party": "R",
        "state": "TX"
      },
      {
        "display_name": "Newhouse",
        "id": "N000189",
        "party": "R",
        "state": "WA"
      },
      {
        "display_name": "Norman",
        "id": "N000190",
        "party": "R",
        "state": "SC"
      },
      {
        "display_name": "Nunn (IA)",
        "id": "N000193",
        "party": "R",
        "state": "IA"
      },
      {
        "display_name": "Obernolte",
        "id": "O000019",
        "party": "R",
        "state": "CA"
      },
      {
        "display_name": "Ogles",
        "id": "O000175",
        "party": "R",
        "state": "TN"
      },
      {
        "display_name": "Owens",
        "id": "O000086",
        "party": "R",
        "state": "UT"
      },
      {
        "display_name": "Palmer",
        "id": "P000609",
        "party": "R",
        "state": "AL"
      },
      {
        "display_name": "Pence",
        "id": "P000615",
        "party": "R",
        "state": "IN"
      },
      {
        "display_name": "Perry",
        "id": "P000605",
        "party": "R",
        "state": "PA"
      },
      {
        "display_name": "Pfluger",
        "id": "P000048",
        "party": "R",
        "state": "TX"
      },
      {
        "display_name": "Posey",
        "id": "P000599",
        "party": "R",
        "state": "FL"
      },
      {
        "display_name": "Reschenthaler",
        "id": "R000610",
        "party": "R",
        "state": "PA"
      },
      {
        "display_name": "Rodgers (WA)",
        "id": "M001159",
        "party": "R",
        "state": "WA"
      },
      {
        "display_name": "Rogers (AL)",
        "id": "R000575",
        "party": "R",
        "state": "AL"
      },
      {
        "display_name": "Rogers (KY)",
        "id": "R000395",
        "party": "R",
        "state": "KY"
      },
      {
        "display_name": "Rose",
        "id": "R000612",
        "party": "R",
        "state": "TN"
      },
      {
        "display_name": "Rosendale",
        "id": "R000103",
        "party": "R",
        "state": "MT"
      },
      {
        "display_name": "Rouzer",
        "id": "R000603",
        "party": "R",
        "state": "NC"
      },
      {
        "display_name": "Roy",
        "id": "R000614",
        "party": "R",
        "state": "TX"
      },
      {
        "display_name": "Rutherford",
        "id": "R000609",
        "party": "R",
        "state": "FL"
      },
      {
        "display_name": "Salazar",
        "id": "S000168",
        "party": "R",
        "state": "FL"
      },
      {
        "display_name": "Santos",
        "id": "S001222",
        "party": "R",
        "state": "NY"
      },
      {
        "display_name": "Scalise",
        "id": "S001176",
        "party": "R",
        "state": "LA"
      },
      {
        "display_name": "Schweikert",
        "id": "S001183",
        "party": "R",
        "state": "AZ"
      },
      {
        "display_name": "Scott, Austin",
        "id": "S001189",
        "party": "R",
        "state": "GA"
      },
      {
        "display_name": "Self",
        "id": "S001224",
        "party": "R",
        "state": "TX"
      },
      {
        "display_name": "Sessions",
        "id": "S000250",
        "party": "R",
        "state": "TX"
      },
      {
        "display_name": "Simpson",
        "id": "S001148",
        "party": "R",
        "state": "ID"
      },
      {
        "display_name": "Smith (MO)",
        "id": "S001195",
        "party": "R",
        "state": "MO"
      },
      {
        "display_name": "Smith (NE)",
        "id": "S001172",
        "party": "R",
        "state": "NE"
      },
      {
        "display_name": "Smith (NJ)",
        "id": "S000522",
        "party": "R",
        "state": "NJ"
      },
      {
        "display_name": "Smucker",
        "id": "S001199",
        "party": "R",
        "state": "PA"
      },
      {
        "display_name": "Spartz",
        "id": "S000929",
        "party": "R",
        "state": "IN"
      },
      {
        "display_name": "Stauber",
        "id": "S001212",
        "party": "R",
        "state": "MN"
      },
      {
        "display_name": "Steel",
        "id": "S001135",
        "party": "R",
        "state": "CA"
      },
      {
        "display_name": "Stefanik",
        "id": "S001196",
        "party": "R",
        "state": "NY"
      },
      {
        "display_name": "Steil",
        "id": "S001213",
        "party": "R",
        "state": "WI"
      },
      {
        "display_name": "Steube",
        "id": "S001214",
        "party": "R",
        "state": "FL"
      },
      {
        "display_name": "Stewart",
        "id": "S001192",
        "party": "R",
        "state": "UT"
      },
      {
        "display_name": "Strong",
        "id": "S001220",
        "party": "R",
        "state": "AL"
      },
      {
        "display_name": "Tenney",
        "id": "T000478",
        "party": "R",
        "state": "NY"
      },
      {
        "display_name": "Thompson (PA)",
        "id": "T000467",
        "party": "R",
        "state": "PA"
      },
      {
        "display_name": "Tiffany",
        "id": "T000165",
        "party": "R",
        "state": "WI"
      },
      {
        "display_name": "Timmons",
        "id": "T000480",
        "party": "R",
        "state": "SC"
      },
      {
        "display_name": "Turner",
        "id": "T000463",
        "party": "R",
        "state": "OH"
      },
      {
        "display_name": "Valadao",
        "id": "V000129",
        "party": "R",
        "state": "CA"
      },
      {
        "display_name": "Van Drew",
        "id": "V000133",
        "party": "R",
        "state": "NJ"
      },
      {
        "display_name": "Van Duyne",
        "id": "V000134",
        "party": "R",
        "state": "TX"
      },
      {
        "display_name": "Van Orden",
        "id": "V000135",
        "party": "R",
        "state": "WI"
      },
      {
        "display_name": "Wagner",
        "id": "W000812",
        "party": "R",
        "state": "MO"
      },
      {
        "display_name": "Walberg",
        "id": "W000798",
        "party": "R",
        "state": "MI"
      },
      {
        "display_name": "Waltz",
        "id": "W000823",
        "party": "R",
        "state": "FL"
      },
      {
        "display_name": "Weber (TX)",
        "id": "W000814",
        "party": "R",
        "state": "TX"
      },
      {
        "display_name": "Webster (FL)",
        "id": "W000806",
        "party": "R",
        "state": "FL"
      },
      {
        "display_name": "Wenstrup",
        "id": "W000815",
        "party": "R",
        "state": "OH"
      },
      {
        "display_name": "Westerman",
        "id": "W000821",
        "party": "R",
        "state": "AR"
      },
      {
        "display_name": "Williams (NY)",
        "id": "W000828",
        "party": "R",
        "state": "NY"
      },
      {
        "display_name": "Williams (TX)",
        "id": "W000816",
        "party": "R",
        "state": "TX"
      },
      {
        "display_name": "Wilson (SC)",
        "id": "W000795",
        "party": "R",
        "state": "SC"
      },
      {
        "display_name": "Wittman",
        "id": "W000804",
        "party": "R",
        "state": "VA"
      },
      {
        "display_name": "Womack",
        "id": "W000809",
        "party": "R",
        "state": "AR"
      },
      {
        "display_name": "Yakym",
        "id": "Y000067",
        "party": "R",
        "state": "IN"
      },
      {
        "display_name": "Zinke",
        "id": "Z000018",
        "party": "R",
        "state": "MT"
      }
    ]
  }
}