{
  "bill": {
    "congress": 118,
    "number": 9,
    "title": "A joint resolution providing for congressional disapproval under chapter 8 of title 5, United States Code, of the rule submitted by the United States Fish and Wildlife Service relating to \"Endangered and Threatened Wildlife and Plants; Lesser Prairie-Chicken; Threatened Status with Section 4(d) Rule for the Northern Distinct Population Segment and Endangered Status for the Southern Distinct Population Segment\".",
    "type": "sjres"
  },
  "category": "passage",
  "chamber": "s",
  "congress": 118,
  "date": "2023-05-03T18:31:00-04:00",
  "number": 110,
  "question": "On the Joint Resolution S.J.Res. 9",
  "record_modified": "2023-05-03T19:31:00-04:00",
  "requires": "1/2",
  "result": "Joint Resolution Passed",
  "result_text": "Joint Resolution Passed (50-48)",
  "session": "2023",
  "source_url": "https://www.senate.gov/legislative/LIS/roll_call_votes/vote1181/vote_118_1_00110.xml",
  "subject": "S.J.Res. 9",
  "type": "On the Joint Resolution",
  "updated_at": "2023-07-03T12:48:02-04:00",
  "vote_id": "s110-118.2023",
  "votes": {
    "Nay": [
      {
        "display_name": "Baldwin (D-WI)",
        "first_name": "Tammy",
        "id": "S354",
        "last_name": "Baldwin",
        "party": "D",
        "state": "WI"
      },
      {
        "display_name": "Bennet (D-CO)",
        "first_name": "Michael",
        "id": "S330",
        "last_name": "Bennet",
        "party": "D",
        "state": "CO"
      },
      {
        "display_name": "Blumenthal (D-CT)",
        "first_name": "Richard",
        "id": "S341",
        "last_name": "Blumenthal",
        "party": "D",
        "state": "CT"
      },
      {
        "display_name": "Booker (D-NJ)",
        "first_name": "Cory",
        "id": "S370",
        "last_name": "Booker",
        "party": "D",
        "state": "NJ"
      },
      {
        "display_name": "Brown (D-OH)",
        "first_name": "Sherrod ",
        "id": "S307",
        "last_name": "Brown",
        "party": "D",
        "state": "OH"
      },
      {
        "display_name": "Cantwell (D-WA)",
        "first_name": "Maria",
        "id": "S275",
        "last_name": "Cantwell",
        "party": "D",
        "state": "WA"
      },
      {
        "display_name": "Cardin (D-MD)",
        "first_name": "Ben",
        "id": "S308",
        "last_name": "Cardin",
        "party": "D",
        "state": "MD"
      },
      {
        "display_name": "Carper (D-DE)",
        "first_name": "Thomas",
        "id": "S277",
        "last_name": "Carper",
        "party": "D",
        "state": "DE"
      },
      {
        "display_name": "Casey (D-PA)",
        "first_name": "Bob",
        "id": "S309",
        "last_name": "Casey",
        "party": "D",
        "state": "PA"
      },
      {
        "display_name": "Coons (D-DE)",
        "first_name": "Christopher",
        "id": "S337",
        "last_name": "Coons",
        "party": "D",
        "state": "DE"
      },
      {
        "display_name": "Cortez Masto (D-NV)",
        "first_name": "Catherine",
        "id": "S385",
        "last_name": "Cortez Masto",
        "party": "D",
        "state": "NV"
      },
      {
        "display_name": "Duckworth (D-IL)",
        "first_name": "Tammy",
        "id": "S386",
        "last_name": "Duckworth",
        "party": "D",
        "state": "IL"
      },
      {
        "display_name": "Durbin (D-IL)",
        "first_name": "Richard",
        "id": "S253",
        "last_name": "Durbin",
        "party": "D",
        "state": "IL"
      },
      {
        "display_name": "Fetterman (D-PA)",
        "first_name": "John",
        "id": "S418",
        "last_name": "Fetterman",
        "party": "D",
        "state": "PA"
      },
      {
        "display_name": "Gillibrand (D-NY)",
        "first_name": "Kirsten",
        "id": "S331",
        "last_name": "Gillibrand",
        "party": "D",
        "state": "NY"
      },
      {
        "display_name": "Hassan (D-NH)",
        "first_name": "Maggie",
        "id": "S388",
        "last_name": "Hassan",
        "party": "D",
        "state": "NH"
      },
      {
        "display_name": "Heinrich (D-NM)",
        "first_name": "Martin",
        "id": "S359",
        "last_name": "Heinrich",
        "party": "D",
        "state": "NM"
      },
      {
        "display_name": "Hickenlooper (D-CO)",
        "first_name": "John",
        "id": "S408",
        "last_name": "Hickenlooper",
        "party": "D",
        "state": "CO"
      },
      {
        "display_name": "Hirono (D-HI)",
        "first_name": "Mazie",
        "id": "S361",
        "last_name": "Hirono",
        "party": "D",
        "state": "HI"
      },
      {
        "display_name": "Kaine (D-VA)",
        "first_name": "Timothy",
        "id": "S362",
        "last_name": "Kaine",
        "party": "D",
        "state": "VA"
      },
      {
        "display_name": "Kelly (D-AZ)",
        "first_name": "Mark",
        "id": "S406",
        "last_name": "Kelly",
        "party": "D",
        "state": "AZ"
      },
      {
        "display_name": "King (I-ME)",
        "first_name": "Angus",
        "id": "S363",
        "last_name": "King",
        "party": "I",
        "state": "ME"
      },
      {
        "display_name": "Klobuchar (D-MN)",
        "first_name": "Amy",
        "id": "S311",
        "last_name": "Klobuchar",
        "party": "D",
        "state": "MN"
      },
      {
        "display_name": "Lujan (D-NM)",
        "first_name": "Ben",
        "id": "S409",
        "last_name": "Lujan",
        "party": "D",
        "state": "NM"
      },
      {
        "display_name": "Markey (D-MA)",
        "first_name": "Edward",
        "id": "S369",
        "last_name": "Markey",
        "party": "D",
        "state": "MA"
      },
      {
        "display_name": "Menendez (D-NJ)",
        "first_name": "Robert",
        "id": "S306",
        "last_name": "Menendez",
        "party": "D",
        "state": "NJ"
      },
      {
        "display_name": "Merkley (D-OR)",
        "first_name": "Jeff",
        "id": "S322",
        "last_name": "Merkley",
        "party": "D",
        "state": "OR"
      },
      {
        "display_name": "Murphy (D-CT)",
        "first_name": "Christopher",
        "id": "S364",
        "last_name": "Murphy",
        "party": "D",
        "state": "CT"
      },
      {
        "display_name": "Murray (D-WA)",
        "first_name": "Patty",
        "id": "S229",
        "last_name": "Murray",
        "party": "D",
        "state": "WA"
      },
      {
        "display_name": "Ossoff (D-GA)",
        "first_name": "Jon",
        "id": "S414",
        "last_name": "Ossoff",
        "party": "D",
        "state": "GA"
      },
      {
        "display_name": "Padilla (D-CA)",
        "first_name": "Alex",
        "id": "S413",
        "last_name": "Padilla",
        "party": "D",
        "state": "CA"
      },
      {
        "display_name": "Peters (D-MI)",
        "first_name": "Gary",
        "id": "S380",
        "last_name": "Peters",
        "party": "D",
        "state": "MI"
      },
      {
        "display_name": "Reed (D-RI)",
        "first_name": "John",
        "id": "S259",
        "last_name": "Reed",
        "party": "D",
        "state": "RI"
      },
      {
        "display_name": "Rosen (D-NV)",
        "first_name": "Jacklyn",
        "id": "S402",
        "last_name": "Rosen",
        "party": "D",
        "state": "NV"
      },
      {
        "display_name": "Sanders (I-VT)",
        "first_name": "Bernard",
        "id": "S313",
        "last_name": "Sanders",
        "party": "I",
        "state": "VT"
      },
      {
        "display_name": "Schatz (D-HI)",
        "first_name": "Brian",
        "id": "S353",
        "last_name": "Schatz",
        "party": "D",
        "state": "HI"
      },
      {
        "display_name": "Schumer (D-NY)",
        "first_name": "Charles",
        "id": "S270",
        "last_name": "Schumer",
        "party": "D",
        "state": "NY"
      },
      {
        "display_name": "Sinema (I-AZ)",
        "first_name": "Kyrsten",
        "id": "S403",
        "last_name": "Sinema",
        "party": "I",
        "state": "AZ"
      },
      {
        "display_name": "Smith (D-MN)",
        "first_name": "Tina",
        "id": "S394",
        "last_name": "Smith",
        "party": "D",
        "state": "MN"
      },
      {
        "display_name": "Stabenow (D-MI)",
        "first_name": "Debbie",
        "id": "S284",
        "last_name": "Stabenow",
        "party": "D",
        "state": "MI"
      },
      {
        "display_name": "Tester (D-MT)",
        "first_name": "Jon",
        "id": "S314",
        "last_name": "Tester",
        "party": "D",
        "state": "MT"
      },
      {
        "display_name": "Van Hollen (D-MD)",
        "first_name": "Chris",
        "id": "S390",
        "last_name": "Van Hollen",
        "party": "D",
        "state": "MD"
      },
      {
        "display_name": "Warner (D-VA)",
        "first_name": "Mark",
        "id": "S327",
        "last_name": "Warner",
        "party": "D",
        "state": "VA"
      },
      {
        "display_name": "Warnock (D-GA)",
        "first_name": "Raphael",
        "id": "S415",
        "last_name": "Warnock",
        "party": "D",
        "state": "GA"
      },
      {
        "display_name": "Warren (D-MA)",
        "first_name": "Elizabeth",
        "id": "S366",
        "last_name": "Warren",
        "party": "D",
        "state": "MA"
      },
      {
        "display_name": "Welch (D-VT)",
        "first_name": "Peter",
        "id": "S422",
        "last_name": "Welch",
        "party": "D",
        "state": "VT"
      },
      {
        "display_name": "Whitehouse (D-RI)",
        "first_name": "Sheldon",
        "id": "S316",
        "last_name": "Whitehouse",
        "party": "D",
        "state": "RI"
      },
      {
        "display_name": "Wyden (D-OR)",
        "first_name": "Ron",
        "id": "S247",
        "last_name": "Wyden",
        "party": "D",
        "state": "OR"
      }
    ],
    "Not Voting": [
      {
        "display_name": "Feinstein (D-CA)",
        "first_name": "Dianne",
        "id": "S221",
        "last_name": "Feinstein",
        "party": "D",
        "state": "CA"
      },
      {
        "display_name": "Shaheen (D-NH)",
        "first_name": "Jeanne",
        "id": "S324",
        "last_name": "Shaheen",
        "party": "D",
        "state": "NH"
      }
    ],
    "Present": [],
    "Yea": [
      {
        "display_name": "Barrasso (R-WY)",
        "first_name": "John",
        "id": "S317",
        "last_name": "Barrasso",
        "party": "R",
        "state": "WY"
      },
      {
        "display_name": "Blackburn (R-TN)",
        "first_name": "Marsha",
        "id": "S396",
        "last_name": "Blackburn",
        "party": "R",
        "state": "TN"
      },
      {
        "display_name": "Boozman (R-AR)",
        "first_name": "John",
        "id": "S343",
        "last_name": "Boozman",
        "party": "R",
        "state": "AR"
      },
      {
        "display_name": "Braun (R-IN)",
        "first_name": "Mike",
        "id": "S397",
        "last_name": "Braun",
        "party": "R",
        "state": "IN"
      },
      {
        "display_name": "Britt (R-AL)",
        "first_name": "Katie",
        "id": "S416",
        "last_name": "Britt",
        "party": "R",
        "state": "AL"
      },
      {
        "display_name": "Budd (R-NC)",
        "first_name": "Ted",
        "id": "S417",
        "last_name": "Budd",
        "party": "R",
        "state": "NC"
      },
      {
        "display_name": "Capito (R-WV)",
        "first_name": "Shelley",
        "id": "S372",
        "last_name": "Capito",
        "party": "R",
        "state": "WV"
      },
      {
        "display_name": "Cassidy (R-LA)",
        "first_name": "Bill",
        "id": "S373",
        "last_name": "Cassidy",
        "party": "R",
        "state": "LA"
      },
      {
        "display_name": "Collins (R-ME)",
        "first_name": "Susan",
        "id": "S252",
        "last_name": "Collins",
        "party": "R",
        "state": "ME"
      },
      {
        "display_name": "Cornyn (R-TX)",
        "first_name": "John",
        "id": "S287",
        "last_name": "Cornyn",
        "party": "R",
        "state": "TX"
      },
      {
        "display_name": "Cotton (R-AR)",
        "first_name": "Tom",
        "id": "S374",
        "last_name": "Cotton",
        "party": "R",
        "state": "AR"
      },
      {
        "display_name": "Cramer (R-ND)",
        "first_name": "Kevin",
        "id": "S398",
        "last_name": "Cramer",
        "party": "R",
        "state": "ND"
      },
      {
        "display_name": "Crapo (R-ID)",
        "first_name": "Mike",
        "id": "S266",
        "last_name": "Crapo",
        "party": "R",
        "state": "ID"
      },
      {
        "display_name": "Cruz (R-TX)",
        "first_name": "Ted",
        "id": "S355",
        "last_name": "Cruz",
        "party": "R",
        "state": "TX"
      },
      {
        "display_name": "Daines (R-MT)",
        "first_name": "Steve",
        "id": "S375",
        "last_name": "Daines",
        "party": "R",
        "state": "MT"
      },
      {
        "display_name": "Ernst (R-IA)",
        "first_name": "Joni",
        "id": "S376",
        "last_name": "Ernst",
        "party": "R",
        "state": "IA"
      },
      {
        "display_name": "Fischer (R-NE)",
        "first_name": "Deb",
        "id": "S357",
        "last_name": "Fischer",
        "party": "R",
        "state": "NE"
      },
      {
        "display_name": "Graham (R-SC)",
        "first_name": "Lindsey",
        "id": "S293",
        "last_name": "Graham",
        "party": "R",
        "state": "SC"
      },
      {
        "display_name": "Grassley (R-IA)",
        "first_name": "Chuck",
        "id": "S153",
        "last_name": "Grassley",
        "party": "R",
        "state": "IA"
      },
      {
        "display_name": "Hagerty (R-TN)",
        "first_name": "Bill",
        "id": "S407",
        "last_name": "Hagerty",
        "party": "R",
        "state": "TN"
      },
      {
        "display_name": "Hawley (R-MO)",
        "first_name": "Josh",
        "id": "S399",
        "last_name": "Hawley",
        "party": "R",
        "state": "MO"
      },
      {
        "display_name": "Hoeven (R-ND)",
        "first_name": "John",
        "id": "S344",
        "last_name": "Hoeven",
        "party": "R",
        "state": "ND"
      },
      {
        "display_name": "Hyde-Smith (R-MS)",
        "first_name": "Cindy",
        "id": "S395",
        "last_name": "Hyde-Smith",
        "party": "R",
        "state": "MS"
      },
      {
        "display_name": "Johnson (R-WI)",
        "first_name": "Ron",
        "id": "S345",
        "last_name": "Johnson",
        "party": "R",
        "state": "WI"
      },
      {
        "display_name": "Kennedy (R-LA)",
        "first_name": "John",
        "id": "S389",
        "last_name": "Kennedy",
        "party": "R",
        "state": "LA"
      },
      {
        "display_name": "Lankford (R-OK)",
        "first_name": "James",
        "id": "S378",
        "last_name": "Lankford",
        "party": "R",
        "state": "OK"
      },
      {
        "display_name": "Lee (R-UT)",
        "first_name": "Mike",
        "id": "S346",
        "last_name": "Lee",
        "party": "R",
        "state": "UT"
      },
      {
        "display_name": "Lummis (R-WY)",
        "first_name": "Cynthia",
        "id": "S410",
        "last_name": "Lummis",
        "party": "R",
        "state": "WY"
      },
      {
        "display_name": "Manchin (D-WV)",
        "first_name": "Joseph",
        "id": "S338",
        "last_name": "Manchin",
        "party": "D",
        "state": "WV"
      },
      {
        "display_name": "Marshall (R-KS)",
        "first_name": "Roger",
        "id": "S411",
        "last_name": "Marshall",
        "party": "R",
        "state": "KS"
      },
      {
        "display_name": "McConnell (R-KY)",
        "first_name": "Mitch",
        "id": "S174",
        "last_name": "McConnell",
        "party": "R",
        "state": "KY"
      },
      {
        "display_name": "Moran (R-KS)",
        "first_name": "Jerry",
        "id": "S347",
        "last_name": "Moran",
        "party": "R",
        "state": "KS"
      },
      {
        "display_name": "Mullin (R-OK)",
        "first_name": "Markwayne",
        "id": "S419",
        "last_name": "Mullin",
        "party": "R",
        "state": "OK"
      },
      {
        "display_name": "Murkowski (R-AK)",
        "first_name": "Lisa",
        "id": "S288",
        "last_name": "Murkowski",
        "party": "R",
        "state": "AK"
      },
      {
        "display_name": "Paul (R-KY)",
        "first_name": "Rand",
        "id": "S348",
        "last_name": "Paul",
        "party": "R",
        "state": "KY"
      },
      {
        "display_name": "Ricketts (R-NE)",
        "first_name": "Pete",
        "id": "S423",
        "last_name": "Ricketts",
        "party": "R",
        "state": "NE"
      },
      {
        "display_name": "Risch (R-ID)",
        "first_name": "James ",
        "id": "S323",
        "last_name": "Risch",
        "party": "R",
        "state": "ID"
      },
      {
        "display_name": "Romney (R-UT)",
        "first_name": "Mitt",
        "id": "S401",
        "last_name": "Romney",
        "party": "R",
        "state": "UT"
      },
      {
        "display_name": "Rounds (R-SD)",
        "first_name": "Mike",
        "id": "S381",
        "last_name": "Rounds",
        "party": "R",
        "state": "SD"
      },
      {
        "display_name": "Rubio (R-FL)",
        "first_name": "Marco",
        "id": "S350",
        "last_name": "Rubio",
        "party": "R",
        "state": "FL"
      },
      {
        "display_name": "Schmitt (R-MO)",
        "first_name": "Eric ",
        "id": "S420",
        "last_name": "Schmitt",
        "party": "R",
        "state": "MO"
      },
      {
        "display_name": "Scott (R-FL)",
        "first_name": "Rick",
        "id": "S404",
        "last_name": "Scott",
        "party": "R",
        "state": "FL"
      },
      {
        "display_name": "Scott (R-SC)",
        "first_name": "Tim",
        "id": "S365",
        "last_name": "Scott",
        "party": "R",
        "state": "SC"
      },
      {
        "display_name": "Sullivan (R-AK)",
        "first_name": "Dan",
        "id": "S383",
        "last_name": "Sullivan",
        "party": "R",
        "state": "AK"
      },
      {
        "display_name": "Thune (R-SD)",
        "first_name": "John",
        "id": "S303",
        "last_name": "Thune",
        "party": "R",
        "state": "SD"
      },
      {
        "display_name": "Tillis (R-NC)",
        "first_name": "Thomas",
        "id": "S384",
        "last_name": "Tillis",
        "party": "R",
        "state": "NC"
      },
      {
        "display_name": "Tuberville (R-AL)",
        "first_name": "Tommy",
        "id": "S412",
        "last_name": "Tuberville",
        "party": "R",
        "state": "AL"
      },
      {
        "display_name": "Vance (R-OH)",
        "first_name": "J.",
        "id": "S421",
        "last_name": "Vance",
        "party": "R",
        "state": "OH"
      },
      {
        "display_name": "Wicker (R-MS)",
        "first_name": "Roger",
        "id": "S318",
        "last_name": "Wicker",
        "party": "R",
        "state": "MS"
      },
      {
        "display_name": "Young (R-IN)",
        "first_name": "Todd",
        "id": "S391",
        "last_name": "Young",
        "party": "R",
        "state": "IN"
      }
    ]
  }
}